%YAML 1.1
%TAG !u! tag:unity3d.com,2011:
--- !u!21 &2100000
Material:
  serializedVersion: 6
  m_ObjectHideFlags: 0
  m_CorrespondingSourceObject: {fileID: 0}
  m_PrefabInstance: {fileID: 0}
  m_PrefabAsset: {fileID: 0}
  m_Name: GreenMaterial
  m_Shader: {fileID: 4800000, guid: 933532a4fcc9baf4fa0491de14d08ed7, type: 3}
  m_ShaderKeywords: _EMISSION _ENVIRONMENTREFLECTIONS_OFF _RECEIVE_SHADOWS_OFF
  m_LightmapFlags: 2
  m_EnableInstancingVariants: 0
  m_DoubleSidedGI: 0
  m_CustomRenderQueue: 3050
  stringTagMap:
    RenderType: Transparent
  disabledShaderPasses:
  - SHADOWCASTER
  m_SavedProperties:
    serializedVersion: 3
    m_TexEnvs:
    - _BaseMap:
        m_Texture: {fileID: 0}
        m_Scale: {x: 1, y: 1}
        m_Offset: {x: 0, y: 0}
    - _BumpMap:
        m_Texture: {fileID: 0}
        m_Scale: {x: 1, y: 1}
        m_Offset: {x: 0, y: 0}
    - _EmissionMap:
        m_Texture: {fileID: 0}
        m_Scale: {x: 1, y: 1}
        m_Offset: {x: 0, y: 0}
    - _MainTex:
        m_Texture: {fileID: 0}
        m_Scale: {x: 1, y: 1}
        m_Offset: {x: 0, y: 0}
    - _MetallicGlossMap:
        m_Texture: {fileID: 0}
        m_Scale: {x: 1, y: 1}
        m_Offset: {x: 0, y: 0}
    - _OcclusionMap:
        m_Texture: {fileID: 0}
        m_Scale: {x: 1, y: 1}
        m_Offset: {x: 0, y: 0}
    - _SpecGlossMap:
        m_Texture: {fileID: 0}
        m_Scale: {x: 1, y: 1}
        m_Offset: {x: 0, y: 0}
    m_Floats:
    - _AlphaClip: 0
    - _Blend: 0
    - _BumpScale: 1
    - _Cull: 2
    - _Cutoff: 0.5
    - _DstBlend: 10
    - _EnvironmentReflections: 0
    - _GlossMapScale: 0
    - _Glossiness: 0
    - _GlossyReflections: 0
    - _Metallic: 0.09
    - _OcclusionStrength: 1
    - _QueueOffset: 0
    - _ReceiveShadows: 0
    - _Smoothness: 0.36
    - _SmoothnessTextureChannel: 0
    - _SpecularHighlights: 1
    - _SrcBlend: 5
    - _Surface: 1
    - _WorkflowMode: 1
    - _ZWrite: 0
    m_Colors:
    - _BaseColor: {r: 0.33001804, g: 0.8784314, b: 0.05490192, a: 0.78431374}
    - _Color: {r: 0.5, g: 0.5, b: 0.5, a: 1}
    - _EmissionColor: {r: 0.32636958, g: 0.7253713, b: 0.03079405, a: 1}
    - _SpecColor: {r: 0.19999996, g: 0.19999996, b: 0.19999996, a: 1}
--- !u!114 &1724213655868806304
MonoBehaviour:
  m_ObjectHideFlags: 11
  m_CorrespondingSourceObject: {fileID: 0}
  m_PrefabInstance: {fileID: 0}
  m_PrefabAsset: {fileID: 0}
  m_GameObject: {fileID: 0}
  m_Enabled: 1
  m_EditorHideFlags: 0
  m_Script: {fileID: 11500000, guid: d0353a89b1f911e48b9e16bdc9f2e058, type: 3}
  m_Name: 
  m_EditorClassIdentifier: 
  version: 1
